<?xml version="1.0" encoding="utf-8"?>
<svg width="191px" height="146px" viewBox="5.514 -4.49 173.41 150.285" version="1.1" xmlns="http://www.w3.org/2000/svg">
  <title>neuron_logo</title>
  <desc>Created with Sketch.</desc>
  <defs>
    <radialGradient gradientUnits="userSpaceOnUse" cx="76.535" cy="71.82" r="76.535" id="gradient-1" gradientTransform="matrix(1, 0, 0, 1, -0.000012, 0.000022)">
      <stop offset="0" style="stop-color: rgba(158, 188, 58, 1)"/>
      <stop offset="1" style="stop-color: rgba(92, 110, 34, 1)"/>
    </radialGradient>
  </defs>
  <path d="M 146.3 60.42 C 142.266 60.42 141.45 65.167 127.735 65.167 L 96.968 65.167 C 96.564 61.016 94.92 57.227 92.415 54.173 L 114.171 32.418 C 123.87 22.719 127.801 25.5 130.654 22.646 C 133.299 20.002 133.299 15.715 130.654 13.072 C 128.009 10.429 123.726 10.428 121.08 13.072 C 118.226 15.925 121.007 19.858 111.308 29.557 L 89.553 51.313 C 86.501 48.807 82.712 47.165 78.561 46.758 L 78.561 46.456 C 78.423 46.441 74.324 46.483 74.513 46.456 L 74.513 46.758 C 72.236 46.981 70.07 47.58 68.072 48.485 L 52.688 21.84 C 45.831 9.96 49.533 6.882 47.516 3.387 C 45.647 0.149 41.506 -0.961 38.268 0.908 C 35.03 2.778 33.92 6.918 35.79 10.156 C 37.807 13.65 42.325 11.984 49.184 23.862 L 64.569 50.509 C 62.754 51.814 61.161 53.407 59.855 55.224 L 59.591 55.071 C 47.712 48.213 49.379 43.695 45.885 41.676 C 42.647 39.807 38.506 40.915 36.637 44.155 C 34.767 47.393 35.877 51.533 39.115 53.402 C 42.61 55.42 45.689 51.716 57.568 58.574 L 57.83 58.726 C 56.925 60.723 56.326 62.889 56.103 65.166 L 25.336 65.166 C 11.62 65.166 10.805 60.419 6.77 60.419 C 3.031 60.419 0 63.451 0 67.19 C 0 70.929 3.03 73.959 6.77 73.959 C 10.805 73.959 11.621 69.214 25.336 69.214 L 56.103 69.214 C 56.509 73.365 58.152 77.153 60.658 80.207 L 38.902 101.963 C 29.204 111.66 25.271 108.88 22.418 111.734 C 19.773 114.379 19.773 118.666 22.418 121.309 C 25.061 123.953 29.348 123.952 31.991 121.309 C 34.845 118.455 32.064 114.522 41.763 104.823 L 63.519 83.068 C 66.573 85.574 70.361 87.215 74.513 87.622 L 74.512 118.304 C 74.513 132.019 69.765 132.835 69.767 136.87 C 69.767 140.608 72.796 143.641 76.535 143.64 C 80.275 143.641 83.306 140.609 83.306 136.87 C 83.306 132.835 78.558 132.019 78.558 118.304 L 78.558 87.621 C 80.848 87.398 83.022 86.795 85.028 85.882 L 85.752 87.135 C 92.609 99.013 88.906 102.093 90.924 105.587 C 92.793 108.825 96.934 109.935 100.17 108.066 C 103.409 106.197 104.52 102.056 102.649 98.818 C 100.631 95.323 96.114 96.991 89.254 85.112 L 88.527 83.852 C 90.332 82.55 91.916 80.964 93.214 79.157 L 93.479 79.31 C 105.359 86.168 103.69 90.686 107.184 92.704 C 110.425 94.573 114.565 93.465 116.433 90.227 C 118.302 86.988 117.192 82.848 113.955 80.978 C 110.461 78.96 107.381 82.664 95.504 75.805 L 95.241 75.654 C 96.146 73.657 96.744 71.491 96.967 69.215 L 127.734 69.215 C 141.45 69.215 142.265 73.96 146.299 73.96 C 150.039 73.96 153.07 70.931 153.07 67.191 C 153.072 63.452 150.04 60.42 146.3 60.42 Z M 76.536 83.572 C 67.489 83.572 60.154 76.238 60.154 67.19 C 60.154 58.142 67.489 50.806 76.536 50.806 C 85.586 50.806 92.921 58.142 92.921 67.19 C 92.921 76.238 85.585 83.572 76.536 83.572 Z" id="Shape" style="stroke-opacity: 0.96; paint-order: stroke; stroke: url(#gradient-1); fill-rule: evenodd; fill: rgb(200, 136, 72);" transform="matrix(0.246394, 0.96917, -0.96917, 0.246394, 127.283182, -20.051294)" stroke="none" stroke-width="1" fill-rule="evenodd"/>
  <path d="M 153.564 67.186 C 153.542 69.158 152.723 71.039 151.434 72.327 C 150.146 73.614 148.265 74.455 146.293 74.455 C 144.101 74.455 142.773 73.183 140.421 72.032 C 138.03 70.861 134.508 69.698 127.728 69.71 L 97.409 69.71 C 97.164 71.72 96.681 73.553 95.874 75.439 L 95.484 75.215 L 95.748 75.367 C 95.79 75.391 95.832 75.415 95.873 75.439 C 95.814 75.578 95.753 75.716 95.69 75.855 L 95.877 75.442 C 101.667 78.779 105.264 79.523 107.901 79.703 C 110.514 79.881 112.265 79.505 114.199 80.54 C 115.895 81.545 117.114 83.195 117.586 84.955 C 118.057 86.714 117.827 88.753 116.86 90.472 C 115.856 92.168 114.206 93.387 112.447 93.859 C 110.687 94.33 108.648 94.099 106.928 93.132 C 105.065 91.974 104.516 90.27 103.055 88.096 C 101.581 85.902 99.137 83.157 93.349 79.811 L 93.614 79.444 C 93.525 79.567 93.436 79.689 93.346 79.809 C 93.305 79.785 93.264 79.762 93.223 79.738 L 93.346 79.809 C 92.097 81.472 90.752 82.791 89.177 83.983 L 89.681 84.857 C 93.061 90.735 95.83 93.204 98.04 94.689 C 100.214 96.15 101.918 96.7 103.076 98.563 C 104.044 100.281 104.275 102.32 103.803 104.08 C 103.331 105.84 102.111 107.49 100.414 108.494 C 98.697 109.461 96.658 109.691 94.899 109.22 C 93.139 108.748 91.49 107.529 90.485 105.832 C 89.45 103.898 89.826 102.147 89.648 99.534 C 89.467 96.877 88.713 93.246 85.313 87.38 L 84.813 86.515 C 82.882 87.341 81.187 87.811 79.052 88.065 L 79.052 118.299 C 79.04 125.079 80.203 128.601 81.375 130.992 C 82.527 133.344 83.8 134.673 83.8 136.865 C 83.8 138.837 82.959 140.718 81.671 142.006 C 80.382 143.294 78.501 144.114 76.529 144.135 C 74.557 144.114 72.677 143.294 71.389 142.006 C 70.102 140.717 69.283 138.836 69.261 136.865 C 69.331 134.673 70.532 133.344 71.684 130.992 C 72.855 128.601 74.019 125.079 74.006 118.299 L 74.007 88.064 C 69.952 87.566 66.584 86.109 63.55 83.733 L 42.111 105.172 C 37.307 109.957 35.64 113.27 34.777 115.79 C 33.929 118.268 33.889 120.107 32.339 121.658 C 30.945 123.051 29.02 123.786 27.199 123.787 C 25.377 123.787 23.468 123.036 22.058 121.658 C 20.679 120.248 19.928 118.339 19.928 116.517 C 19.928 114.695 20.679 112.786 22.058 111.375 C 23.659 109.875 25.447 109.785 27.925 108.937 C 30.444 108.074 33.757 106.407 38.542 101.604 L 59.982 80.165 C 57.597 77.111 56.138 73.743 55.649 69.709 L 25.33 69.709 C 18.55 69.697 15.028 70.86 12.637 72.031 C 10.285 73.182 8.956 74.454 6.764 74.454 C 4.792 74.454 2.911 73.613 1.623 72.325 C 0.335 71.037 -0.506 69.157 -0.506 67.185 C -0.506 65.213 0.335 63.332 1.623 62.044 C 2.911 60.755 4.792 59.914 6.764 59.914 C 8.956 59.914 10.284 61.186 12.637 62.338 C 15.028 63.51 18.55 64.673 25.33 64.661 L 55.649 64.661 C 55.894 62.649 56.378 60.815 57.186 58.929 C 51.394 55.59 47.795 54.847 45.157 54.667 C 42.544 54.489 40.794 54.865 38.859 53.83 C 37.162 52.826 35.943 51.176 35.472 49.416 C 35 47.657 35.231 45.618 36.198 43.9 C 37.202 42.202 38.853 40.983 40.612 40.512 C 42.372 40.04 44.411 40.271 46.129 41.238 C 47.992 42.397 48.541 44.101 50.003 46.275 C 51.477 48.469 53.921 51.214 59.708 54.56 L 59.443 54.927 C 59.532 54.804 59.622 54.682 59.712 54.562 C 59.71 54.561 59.709 54.56 59.708 54.56 L 59.708 54.559 L 59.712 54.562 C 59.712 54.562 59.712 54.562 59.712 54.562 C 59.712 54.562 59.712 54.562 59.712 54.562 C 59.753 54.586 59.794 54.61 59.836 54.633 L 59.712 54.562 C 60.968 52.888 62.322 51.563 63.907 50.367 L 48.745 24.107 C 45.365 18.229 42.596 15.761 40.386 14.275 C 38.212 12.814 36.509 12.264 35.351 10.401 C 34.384 8.683 34.153 6.644 34.625 4.885 C 35.096 3.125 36.316 1.475 38.012 0.47 C 39.73 -0.497 41.769 -0.727 43.529 -0.256 C 45.289 0.216 46.939 1.435 47.943 3.132 C 48.977 5.067 48.601 6.817 48.78 9.43 C 48.961 12.087 49.715 15.718 53.115 21.585 L 68.275 47.842 C 70.072 47.078 71.885 46.558 74.007 46.305 L 74.007 46.451 C 74.007 46.402 74.007 46.353 74.007 46.305 C 74.156 46.287 74.306 46.27 74.458 46.255 L 74.007 46.3 C 74.002 39.619 72.847 36.131 71.685 33.757 C 70.533 31.405 69.261 30.076 69.261 27.884 C 69.261 25.912 70.102 24.031 71.39 22.743 C 72.678 21.455 74.559 20.614 76.531 20.614 C 78.503 20.614 80.384 21.455 81.672 22.744 C 82.96 24.032 83.801 25.913 83.801 27.884 C 83.801 30.076 82.529 31.405 81.377 33.757 C 80.215 36.131 79.06 39.618 79.055 46.301 L 78.604 46.255 C 78.755 46.271 78.905 46.287 79.055 46.305 C 79.055 46.354 79.055 46.402 79.055 46.451 L 79.055 46.305 C 83.089 46.795 86.567 48.339 89.51 50.638 L 110.948 29.198 C 115.752 24.413 117.419 21.1 118.282 18.58 C 119.13 16.102 119.22 14.314 120.721 12.713 C 122.131 11.335 124.04 10.584 125.861 10.584 C 127.683 10.584 129.607 11.32 131.001 12.713 C 132.396 14.107 133.132 16.032 133.132 17.854 C 133.132 19.675 132.381 21.585 131.002 22.994 C 129.401 24.495 127.613 24.585 125.136 25.433 C 122.617 26.296 119.304 27.963 114.519 32.767 L 93.079 54.205 C 95.463 57.259 96.922 60.628 97.41 64.662 L 127.729 64.662 C 134.509 64.674 138.031 63.511 140.422 62.339 C 142.774 61.187 144.102 59.915 146.294 59.915 C 148.266 59.915 150.148 60.756 151.436 62.045 C 152.724 63.333 153.543 65.214 153.564 67.186 Z M 150.729 62.752 C 149.566 61.59 148.062 60.915 146.294 60.915 C 144.452 60.915 143.355 62.016 140.862 63.238 C 138.408 64.44 134.664 65.65 127.729 65.662 L 96.507 65.662 L 96.464 65.21 C 96.08 61.135 94.491 57.48 92.022 54.485 L 91.734 54.136 L 113.811 32.059 C 118.725 27.164 122.227 25.372 124.812 24.487 C 127.438 23.588 129.042 23.641 130.294 22.287 C 131.56 21.053 132.132 19.497 132.132 17.854 C 132.132 16.21 131.545 14.67 130.295 13.421 C 129.044 12.171 127.504 11.584 125.861 11.584 C 124.218 11.584 122.663 12.155 121.427 13.421 C 120.074 14.673 120.127 16.278 119.228 18.904 C 118.343 21.489 116.551 24.992 111.656 29.906 L 89.579 51.983 L 89.23 51.694 C 86.237 49.225 82.582 47.638 78.506 47.251 L 78.055 47.208 L 78.055 46.451 C 78.067 39.515 79.277 35.771 80.479 33.317 C 81.7 30.824 82.801 29.727 82.801 27.884 C 82.801 26.117 82.127 24.613 80.965 23.451 C 79.802 22.289 78.298 21.614 76.531 21.614 C 74.764 21.614 73.26 22.288 72.097 23.45 C 70.935 24.613 70.261 26.117 70.261 27.884 C 70.261 29.727 71.362 30.824 72.583 33.318 C 73.785 35.772 74.995 39.516 75.007 46.451 L 75.007 47.207 L 74.556 47.251 C 72.321 47.466 70.234 48.044 68.272 48.935 L 67.86 49.123 L 52.249 22.085 C 48.792 16.072 47.968 12.224 47.782 9.498 C 47.593 6.729 48.06 5.192 47.077 3.632 C 46.212 2.091 44.858 1.136 43.27 0.71 C 41.682 0.285 40.032 0.434 38.512 1.336 C 36.97 2.201 36.016 3.556 35.59 5.143 C 35.165 6.731 35.314 8.381 36.217 9.901 C 37.076 11.532 38.64 11.896 40.944 13.445 C 43.212 14.969 46.132 17.607 49.611 23.607 L 65.223 50.646 L 64.855 50.91 C 63.071 52.189 61.535 53.725 60.255 55.511 L 59.991 55.879 L 59.334 55.499 C 53.334 52.02 50.697 49.101 49.173 46.833 C 47.624 44.529 47.26 42.964 45.629 42.104 C 44.109 41.202 42.459 41.052 40.871 41.478 C 39.284 41.903 37.929 42.857 37.064 44.4 C 36.161 45.919 36.012 47.57 36.437 49.157 C 36.863 50.745 37.818 52.099 39.359 52.964 C 40.919 53.947 42.456 53.48 45.226 53.669 C 47.952 53.855 51.799 54.679 57.812 58.136 L 58.075 58.289 L 58.467 58.516 L 58.279 58.927 C 57.388 60.888 56.81 62.975 56.595 65.21 L 56.551 65.661 L 25.33 65.661 C 18.394 65.649 14.651 64.439 12.197 63.237 C 9.704 62.015 8.607 60.914 6.764 60.914 C 4.997 60.914 3.493 61.589 2.33 62.751 C 1.168 63.913 0.494 65.418 0.494 67.185 C 0.494 68.952 1.168 70.456 2.33 71.618 C 3.492 72.78 4.996 73.454 6.764 73.454 C 8.607 73.454 9.704 72.353 12.197 71.132 C 14.651 69.931 18.395 68.721 25.33 68.709 L 56.552 68.709 L 56.595 69.16 C 56.981 73.236 58.569 76.89 61.039 79.885 L 61.327 80.234 L 39.25 102.312 C 34.337 107.206 30.834 108.998 28.249 109.883 C 25.623 110.782 24.018 110.729 22.766 112.083 C 21.5 113.317 20.928 114.874 20.928 116.517 C 20.928 118.161 21.5 119.717 22.765 120.95 C 23.999 122.215 25.555 122.787 27.198 122.787 C 28.842 122.787 30.382 122.2 31.631 120.95 C 32.935 119.647 32.932 118.093 33.831 115.466 C 34.716 112.881 36.508 109.378 41.403 104.464 L 63.481 82.388 L 63.83 82.676 C 66.825 85.146 70.479 86.732 74.556 87.119 L 75.007 87.162 L 75.006 118.299 C 74.994 125.234 73.784 128.978 72.582 131.432 C 71.361 133.925 70.189 135.022 70.261 136.865 C 70.239 138.632 70.935 140.136 72.097 141.299 C 73.258 142.461 74.762 143.157 76.529 143.135 C 78.297 143.157 79.801 142.461 80.963 141.299 C 82.126 140.137 82.8 138.632 82.8 136.865 C 82.8 135.022 81.699 133.925 80.477 131.432 C 79.275 128.978 78.064 125.234 78.052 118.299 L 78.052 87.162 L 78.504 87.118 C 80.751 86.903 82.846 86.322 84.815 85.422 L 85.228 85.233 L 86.179 86.88 C 89.636 92.892 90.459 96.74 90.645 99.466 C 90.834 102.236 90.368 103.772 91.351 105.332 C 92.216 106.873 93.571 107.828 95.158 108.254 C 96.745 108.679 98.395 108.53 99.914 107.628 C 101.456 106.763 102.411 105.408 102.837 103.821 C 103.262 102.233 103.113 100.583 102.21 99.063 C 101.35 97.431 99.786 97.068 97.482 95.519 C 95.214 93.995 92.295 91.358 88.815 85.357 L 88.088 84.097 L 87.862 83.705 L 88.229 83.442 C 90.003 82.166 91.53 80.637 92.802 78.86 L 93.065 78.492 L 93.723 78.872 C 99.724 82.351 102.361 85.27 103.885 87.538 C 105.434 89.842 105.797 91.406 107.428 92.266 C 108.949 93.168 110.601 93.318 112.188 92.893 C 113.776 92.468 115.13 91.514 115.994 89.972 C 116.896 88.452 117.045 86.801 116.62 85.214 C 116.194 83.626 115.24 82.271 113.699 81.406 C 112.139 80.423 110.603 80.89 107.833 80.701 C 105.107 80.515 101.26 79.691 95.248 76.233 L 94.986 76.083 L 94.592 75.856 L 94.78 75.443 C 95.671 73.482 96.248 71.395 96.463 69.161 L 96.507 68.71 L 127.728 68.71 C 134.664 68.722 138.407 69.932 140.861 71.133 C 143.354 72.354 144.451 73.455 146.293 73.455 C 148.061 73.455 149.565 72.781 150.728 71.619 C 151.89 70.458 152.586 68.954 152.564 67.186 C 152.587 65.419 151.891 63.914 150.729 62.752 Z M 76.53 84.067 C 71.904 84.067 67.62 82.15 64.593 79.123 C 61.565 76.095 59.648 71.811 59.648 67.185 C 59.648 62.559 61.565 58.274 64.593 55.246 C 67.62 52.218 71.904 50.301 76.53 50.301 C 81.157 50.301 85.442 52.218 88.47 55.246 C 91.498 58.274 93.415 62.559 93.415 67.185 C 93.415 71.811 91.498 76.095 88.469 79.123 C 85.441 82.15 81.157 84.067 76.53 84.067 Z M 87.762 78.415 C 90.664 75.514 92.415 71.607 92.415 67.185 C 92.415 62.763 90.665 58.856 87.763 55.954 C 84.861 53.052 80.953 51.301 76.53 51.301 C 72.109 51.301 68.202 53.052 65.3 55.954 C 62.398 58.856 60.648 62.763 60.648 67.185 C 60.648 71.607 62.398 75.514 65.3 78.415 C 68.202 81.317 72.109 83.067 76.53 83.067 C 80.952 83.067 84.86 81.317 87.762 78.415 Z" style="" transform="matrix(0.246394, 0.96917, -0.96917, 0.246394, 127.279941, -20.044472)" stroke="none" stroke-width="1" fill-rule="evenodd" fill="none"/>
  <path d="M 117.383 59.251 L 117.383 38.478 L 125.875 38.478 C 127.262 38.478 128.281 38.919 128.931 39.799 C 129.582 40.678 129.908 42.02 129.908 43.82 C 129.908 45.007 129.724 45.971 129.356 46.713 C 128.988 47.455 128.536 47.974 127.997 48.271 C 129.144 48.706 129.922 49.774 130.333 51.476 C 130.474 52.089 130.545 52.801 130.545 53.612 C 130.545 55.552 130.219 56.976 129.568 57.886 C 128.918 58.795 127.899 59.251 126.511 59.251 L 117.383 59.251 Z M 126.724 53.316 L 126.724 52.722 C 126.724 51.535 126.299 50.942 125.45 50.942 L 121.204 50.942 L 121.204 55.096 L 125.45 55.096 C 126.299 55.096 126.724 54.503 126.724 53.316 Z M 126.087 45.007 L 126.087 44.413 C 126.087 43.226 125.662 42.633 124.813 42.633 L 121.204 42.633 L 121.204 46.787 L 124.813 46.787 C 125.662 46.787 126.087 46.194 126.087 45.007 Z M 140.522 47.826 L 138.718 47.826 C 137.826 47.826 136.906 48.122 135.958 48.716 L 135.958 59.251 L 132.243 59.251 L 132.243 43.523 L 135.533 43.523 L 135.746 45.452 C 136.963 43.968 138.237 43.226 139.567 43.226 L 140.522 43.226 L 140.522 47.826 Z M 145.086 55.393 L 145.617 55.393 C 146.367 55.393 147.216 55.196 148.164 54.799 L 148.164 53.019 L 145.086 53.019 C 144.874 53.019 144.697 53.118 144.555 53.316 C 144.414 53.513 144.343 53.761 144.343 54.058 L 144.343 54.354 C 144.343 54.651 144.414 54.899 144.555 55.096 C 144.697 55.293 144.874 55.393 145.086 55.393 Z M 141.69 47.529 L 141.69 43.82 C 144.279 43.423 146.615 43.226 148.695 43.226 C 149.658 43.226 150.428 43.631 151.009 44.443 C 151.589 45.254 151.879 46.332 151.879 47.677 L 151.879 59.251 L 148.589 59.251 L 148.377 57.767 C 147.711 58.38 147.029 58.831 146.328 59.117 C 145.627 59.404 145.036 59.547 144.555 59.547 L 143.812 59.547 C 142.85 59.547 142.079 59.142 141.499 58.331 C 140.918 57.519 140.628 56.442 140.628 55.096 L 140.628 53.761 C 140.628 52.415 140.918 51.338 141.499 50.526 C 142.079 49.715 142.85 49.309 143.812 49.309 L 148.164 49.309 L 148.164 48.122 C 148.164 47.826 148.093 47.578 147.952 47.381 C 147.811 47.183 147.634 47.084 147.421 47.084 C 146.501 47.084 145.486 47.143 144.375 47.262 C 143.264 47.381 142.369 47.47 141.69 47.529 Z M 160.795 47.529 L 160.052 47.529 C 159.302 47.529 158.453 47.726 157.505 48.122 L 157.505 59.251 L 153.79 59.251 L 153.79 43.523 L 157.08 43.523 L 157.292 45.007 C 157.958 44.394 158.64 43.943 159.341 43.656 C 160.041 43.37 160.633 43.226 161.113 43.226 L 162.069 43.226 C 163.031 43.226 163.802 43.631 164.383 44.443 C 164.963 45.254 165.253 46.332 165.253 47.677 L 165.253 59.251 L 161.538 59.251 L 161.538 48.568 C 161.538 48.271 161.467 48.023 161.326 47.826 C 161.185 47.628 161.007 47.529 160.795 47.529 Z M 178.415 59.251 L 175.124 59.251 L 174.912 57.767 C 174.246 58.38 173.564 58.831 172.863 59.117 C 172.163 59.404 171.572 59.547 171.091 59.547 L 170.135 59.547 C 169.173 59.547 168.401 59.142 167.822 58.331 C 167.241 57.519 166.951 56.442 166.951 55.096 L 166.951 48.271 C 166.951 46.787 167.252 45.625 167.853 44.784 C 168.454 43.943 169.286 43.523 170.348 43.523 L 174.7 43.523 L 174.7 38.478 L 178.415 38.478 L 178.415 59.251 Z M 171.409 55.245 L 172.152 55.245 C 172.902 55.245 173.751 55.047 174.7 54.651 L 174.7 47.529 L 171.515 47.529 C 170.949 47.529 170.666 47.925 170.666 48.716 L 170.666 54.206 C 170.666 54.503 170.736 54.75 170.878 54.948 C 171.02 55.145 171.197 55.245 171.409 55.245 Z" style="fill-rule: evenodd; white-space: pre; fill: rgb(75, 184, 186);"/>
  <path d="M 116.23 59.068 L 116.23 79.841 L 112.196 79.841 L 107.101 67.377 L 107.101 79.841 L 103.28 79.841 L 103.28 59.068 L 107.314 59.068 L 112.408 71.532 L 112.408 59.068 L 116.23 59.068 Z M 124.827 67.526 L 122.916 67.526 C 122.351 67.526 122.067 67.922 122.067 68.713 L 122.067 70.345 L 125.676 70.345 L 125.676 68.713 C 125.676 67.922 125.393 67.526 124.827 67.526 Z M 128.966 75.835 L 128.966 79.544 C 126.235 79.94 123.758 80.138 121.537 80.138 C 120.574 80.138 119.803 79.733 119.223 78.921 C 118.642 78.109 118.352 77.032 118.352 75.686 L 118.352 68.564 C 118.352 67.081 118.653 65.919 119.255 65.077 C 119.856 64.236 120.687 63.816 121.749 63.816 L 125.995 63.816 C 127.056 63.816 127.887 64.236 128.489 65.077 C 129.091 65.919 129.391 67.081 129.391 68.564 L 129.391 74.054 L 122.067 74.054 L 122.067 75.241 C 122.067 75.538 122.138 75.786 122.28 75.983 C 122.421 76.18 122.598 76.28 122.81 76.28 C 124.211 76.28 126.263 76.131 128.966 75.835 Z M 135.76 75.835 L 136.503 75.835 C 137.253 75.835 138.102 75.637 139.05 75.241 L 139.05 64.113 L 142.765 64.113 L 142.765 79.841 L 139.474 79.841 L 139.262 78.357 C 138.597 78.97 137.914 79.421 137.214 79.707 C 136.513 79.994 135.922 80.138 135.441 80.138 L 134.486 80.138 C 133.523 80.138 132.753 79.733 132.172 78.921 C 131.591 78.109 131.302 77.032 131.302 75.686 L 131.302 64.113 L 135.017 64.113 L 135.017 74.796 C 135.017 75.093 135.088 75.341 135.229 75.538 C 135.37 75.735 135.547 75.835 135.76 75.835 Z M 153.167 68.416 L 151.362 68.416 C 150.471 68.416 149.55 68.713 148.603 69.306 L 148.603 79.841 L 144.888 79.841 L 144.888 64.113 L 148.178 64.113 L 148.39 66.042 C 149.607 64.558 150.88 63.816 152.211 63.816 L 153.167 63.816 L 153.167 68.416 Z M 165.691 68.564 L 165.691 75.39 C 165.691 76.873 165.39 78.035 164.789 78.876 C 164.187 79.718 163.356 80.138 162.295 80.138 L 157.412 80.138 C 156.351 80.138 155.519 79.718 154.918 78.876 C 154.316 78.035 154.016 76.873 154.016 75.39 L 154.016 68.564 C 154.016 67.081 154.316 65.919 154.918 65.077 C 155.519 64.236 156.351 63.816 157.412 63.816 L 162.295 63.816 C 163.356 63.816 164.187 64.236 164.789 65.077 C 165.39 65.919 165.691 67.081 165.691 68.564 Z M 161.976 74.944 L 161.976 69.009 C 161.976 68.219 161.693 67.822 161.127 67.822 L 158.58 67.822 C 158.013 67.822 157.731 68.219 157.731 69.009 L 157.731 74.944 C 157.731 75.735 158.013 76.131 158.58 76.131 L 161.127 76.131 C 161.693 76.131 161.976 75.735 161.976 74.944 Z M 174.607 68.119 L 173.864 68.119 C 173.114 68.119 172.265 68.317 171.317 68.713 L 171.317 79.841 L 167.602 79.841 L 167.602 64.113 L 170.892 64.113 L 171.105 65.597 C 171.769 64.984 172.453 64.533 173.153 64.247 C 173.854 63.96 174.444 63.816 174.926 63.816 L 175.881 63.816 C 176.843 63.816 177.614 64.221 178.195 65.033 C 178.774 65.845 179.065 66.922 179.065 68.268 L 179.065 79.841 L 175.35 79.841 L 175.35 69.158 C 175.35 68.861 175.279 68.613 175.138 68.416 C 174.996 68.219 174.819 68.119 174.607 68.119 Z" style="fill-rule: evenodd; white-space: pre; fill: rgb(75, 184, 186);"/>
</svg>